<?xml version="1.0" encoding="UTF-8" standalone="no"?>
<!-- Created with Inkscape (http://www.inkscape.org/) -->

<svg
   xmlns:dc="http://purl.org/dc/elements/1.1/"
   xmlns:cc="http://creativecommons.org/ns#"
   xmlns:rdf="http://www.w3.org/1999/02/22-rdf-syntax-ns#"
   xmlns:svg="http://www.w3.org/2000/svg"
   xmlns="http://www.w3.org/2000/svg"
   xmlns:sodipodi="http://sodipodi.sourceforge.net/DTD/sodipodi-0.dtd"
   xmlns:inkscape="http://www.inkscape.org/namespaces/inkscape"
   width="158.88092"
   height="158.78125"
   id="svg3810"
   version="1.1"
   inkscape:version="0.48.5 r10040"
   sodipodi:docname="top-normal.svg">
  <defs
     id="defs3812" />
  <sodipodi:namedview
     id="base"
     pagecolor="#ffffff"
     bordercolor="#666666"
     borderopacity="1.0"
     inkscape:pageopacity="0.0"
     inkscape:pageshadow="2"
     inkscape:zoom="3.959798"
     inkscape:cx="20.519257"
     inkscape:cy="146.572"
     inkscape:document-units="px"
     inkscape:current-layer="layer1"
     showgrid="false"
     fit-margin-top="0"
     fit-margin-left="0"
     fit-margin-right="0"
     fit-margin-bottom="0"
     inkscape:window-width="2560"
     inkscape:window-height="1372"
     inkscape:window-x="0"
     inkscape:window-y="29"
     inkscape:window-maximized="1" />
  <metadata
     id="metadata3815">
    <rdf:RDF>
      <cc:Work
         rdf:about="">
        <dc:format>image/svg+xml</dc:format>
        <dc:type
           rdf:resource="http://purl.org/dc/dcmitype/StillImage" />
        <dc:title />
      </cc:Work>
    </rdf:RDF>
  </metadata>
  <g
     inkscape:label="Layer 1"
     inkscape:groupmode="layer"
     id="layer1"
     transform="translate(-454.83784,-652.96875)">
    <rect
       style="fill:none;stroke:#000000;stroke-width:4;stroke-linecap:butt;stroke-linejoin:miter;stroke-opacity:1;stroke-miterlimit:4;stroke-dasharray:none"
       id="rect2985"
       width="157.5838"
       height="157.5838"
       x="455.64697"
       y="653.65588" />
    <path
       style="fill:none;stroke:#000000;stroke-width:1px;stroke-linecap:butt;stroke-linejoin:miter;stroke-opacity:1"
       d="m 455.37755,653.48466 c -0.68529,23.25851 8.2632,43.87883 19.59154,56.51147 40.41956,45.0733 97.07053,29.28199 122.25708,-5.29496 10.11797,-13.89028 14.74629,-30.80906 15.29423,-50.85937 z"
       id="path3761"
       inkscape:connector-curvature="0"
       sodipodi:nodetypes="cssc" />
    <path
       style="fill:#000000;fill-opacity:1;stroke:#000000;stroke-width:0.35714287;stroke-opacity:1"
       d="m 528.79915,737.48446 c -18.40549,-1.29443 -34.61199,-8.85202 -48.79376,-22.5603 -8.19504,-7.92142 -14.07051,-16.06696 -18.2135,-26.06758 -4.16425,-10.05195 -6.51976,-19.58849 -5.7606,-29.00865 l -0.0893,-5.98598 68.30357,0.44712 c 37.27151,0.24398 72.3384,-0.72629 77.7818,-0.29938 l 10.19251,-0.0322 -0.48202,7.26366 c -0.87078,13.12174 -2.87252,19.87294 -6.95537,29.58509 -8.96165,21.31766 -29.45647,38.23014 -52.76438,44.20108 -7.37404,1.88905 -16.51639,2.80157 -22.68326,2.36787 z"
       id="path3765"
       inkscape:connector-curvature="0"
       sodipodi:nodetypes="cssscsscssscc" />
    <path
       style="fill:#ffffff;fill-opacity:1;stroke:#000000;stroke-width:4;stroke-miterlimit:4;stroke-opacity:1;stroke-dasharray:none"
       d="M 3.0954236,91.447135 2.678033,24.839993 3.9308613,29.393564 C 7.4782625,42.287067 15.234815,53.71974 24.544375,62.60785 37.690425,75.158768 52.657811,82.644878 68.8896,84.787621 c 5.409943,0.714164 16.945243,0.509957 21.855357,-0.3869 13.802583,-2.521111 26.509923,-8.251275 37.498903,-16.909507 3.23339,-2.547593 10.21034,-9.529089 12.77443,-12.782751 6.66631,-8.459096 11.58065,-18.726526 14.33881,-29.957756 l 1.41278,-5.714286 -0.51251,69.553572 0.0232,67.410717 -76.607141,0 -76.6071433,0 0.029038,-64.553575 z"
       id="path3036"
       inkscape:connector-curvature="0"
       transform="translate(454.83784,652.96875)"
       sodipodi:nodetypes="ccsssssssccccccc" />
  </g>
</svg>
